<?xml version="1.0" encoding="UTF-8" standalone="no"?>
<svg xmlns:dc="http://purl.org/dc/elements/1.1/" xmlns:cc="http://creativecommons.org/ns#" xmlns:rdf="http://www.w3.org/1999/02/22-rdf-syntax-ns#" xmlns:svg="http://www.w3.org/2000/svg" xmlns="http://www.w3.org/2000/svg" version="1.1" id="svg2" viewBox="0 0 35.208 29.1309" style="shape-rendering:geometricPrecision; text-rendering:geometricPrecision; image-rendering:optimizeQuality; fill-rule:evenodd; clip-rule:evenodd" height="20px" width="24px" xml:space="preserve"><metadata id="metadata14"><rdf:RDF><cc:Work rdf:about=""><dc:format>image/svg+xml</dc:format><dc:type rdf:resource="http://purl.org/dc/dcmitype/StillImage"/><dc:title/></cc:Work></rdf:RDF></metadata><defs id="defs4"><style id="style6" type="text/css"><![CDATA[
    .fil0 {fill:#959595;fill-rule:nonzero}
   ]]></style></defs><g id="Слой_x0020_1"><metadata id="CorelCorpID_0Corel-Layer"/><path style="fill:#7a7a7a;fill-rule:nonzero;fill-opacity:1" id="path10" d="M 4.128,0 31.08,0 c 1.12971,0 2.16,0.456 2.90571,1.18629 l 0.0034,0.00343 0.01371,0.013714 c 0.742286,0.733714 1.20514,1.74686 1.20514,2.856 l 0,15.31895 c 0,1.116 -0.468,2.13429 -1.21886,2.86971 l -0.0034,0.0034 -0.0017,0.0017 c -0.745714,0.728571 -1.776,1.18457 -2.904,1.18457 l -19.4417,0 -4.71429,5.09657 c -0.269143,0.291429 -0.7123628,0.308571 -1.0037918,0.03943 -0.152571,-0.140571 -0.229714,-0.334286 -0.229714,-0.529714 l -0.00686,0 0,-4.60629 -1.5556382,0 c -1.12971,0 -2.16,-0.456 -2.90571,-1.18629 L 1.218866,22.24807 1.205152,22.23435 C 0.46286,21.500653 6e-6,20.487507 6e-6,19.378367 l 0,-15.3189495 c 0,-1.116 0.468,-2.13429 1.21886,-2.86971 l 0.00343,-0.00343 0.00171,-0.00171 C 1.9697229,0.4559936 3.0000089,-5.4e-6 4.128,0 Z m 17.8011,10.356184 2.904,0 0,2.738487 -2.904,0 z m -5.85771,0 2.904,0 0,2.738487 -2.904,0 z m -5.856,0 2.904,0 0,2.738487 -2.904,0 z m 20.8646,-8.902444 -26.952,0 c -0.728571,0 -1.392,0.288 -1.872,0.745714 L 2.233704,2.22174 2.230274,2.22517 C 1.753703,2.691456 1.453703,3.34288 1.453703,4.05946 l 0,15.31895 c 0,0.711429 0.294857,1.35943 0.766286,1.824 l 0.010286,0.01029 0.00343,0.0034 c 0.481714,0.471429 1.15371,0.768 1.89429,0.768 l 2.26629,0 c 0.401143,0 0.726857,0.325714 0.726857,0.726857 l 0,3.48514 3.61714,-3.91029 c 0.132,-0.183429 0.346286,-0.301714 0.589714,-0.301714 l 19.752,0 c 0.728571,0 1.392,-0.288 1.872,-0.745714 l 0.02229,-0.02229 0.0034,-0.0034 c 0.476571,-0.466286 0.776571,-1.11771 0.776571,-1.83429 l 0,-15.31895 c 0,-0.711429 -0.294857,-1.35943 -0.766286,-1.824 l -0.01028,-0.010286 -0.0034,-0.00343 C 32.492567,1.750304 31.820571,1.453733 31.07999,1.45374 Z" class="fil0"/></g></svg>